<?xml version="1.0" encoding="utf-8"?>
<!-- Generator: Adobe Illustrator 22.1.0, SVG Export Plug-In . SVG Version: 6.00 Build 0)  -->
<svg version="1.1" id="Layer_1" xmlns="http://www.w3.org/2000/svg" xmlns:xlink="http://www.w3.org/1999/xlink" x="0px" y="0px"
	 viewBox="0 0 23 28" style="enable-background:new 0 0 23 28;" xml:space="preserve">
<style type="text/css">
	.st0{fill:rgb(0, 172, 237);}
</style>
<g>
	<g>
		<path class="st0" d="M22.9,4.4c-4.7,0-8.4-1.4-11.4-4.3c-3.1,3-6.7,4.3-11.4,4.3c0,7.9-1.6,19.1,11.4,23.7
			C24.5,23.5,22.9,12.2,22.9,4.4L22.9,4.4z M10.6,18.1l-3.8-3.8l1.7-1.7l2.1,2.1l4-4l1.7,1.7L10.6,18.1z"/>
	</g>
</g>
</svg>
